com\esr\core\CoordinateOption.class
com\esr\core\ExitOption.class
com\esr\core\Rule$Type.class
com\esr\GameOfLife.class
com\esr\core\DimensionOption.class
com\esr\core\RuleOption$1.class
com\esr\abstracts\Option.class
com\esr\core\Menu.class
com\esr\core\RuleOption.class
com\esr\util\Coordinate.class
com\esr\core\Cell.class
com\esr\abstracts\ConfigOption.class
com\esr\core\IterationOption.class
com\esr\core\PlayOption.class
com\esr\util\GestorIO.class
com\esr\core\Board.class
com\esr\core\Rule.class
